{
"code": 200,
"meta": {
"pagination": {
"total": 1850,
"pages": 93,
"page": 1,
"limit": 20
}
},
"data": [
{
"id": 233,
"user_id": 137,
"title": "Deserunt vere collum tersus umquam nesciunt vis.",
"completed": true,
"created_at": "2021-02-02T03:50:06.168+05:30",
"updated_at": "2021-02-02T03:50:06.168+05:30"
},
{
"id": 234,
"user_id": 137,
"title": "Ut amitto cito quas sufficio bardus eum depono cuius corroboro canonicus.",
"completed": false,
"created_at": "2021-02-02T03:50:06.17+05:30",
"updated_at": "2021-02-02T03:50:06.17+05:30"
},
{
"id": 235,
"user_id": 137,
"title": "Volup sufficio aut solvo admiratio atrocitas condico inflammatio benevolentia velum conor.",
"completed": true,
"created_at": "2021-02-02T03:50:06.172+05:30",
"updated_at": "2021-02-02T03:50:06.172+05:30"
},
{
"id": 236,
"user_id": 138,
"title": "Vesica pecus tergiversatio paens patruus adicio demens defaeco.",
"completed": true,
"created_at": "2021-02-02T03:50:06.177+05:30",
"updated_at": "2021-02-02T03:50:06.177+05:30"
},
{
"id": 238,
"user_id": 141,
"title": "Possimus doloremque derideo calco degusto tibi.",
"completed": true,
"created_at": "2021-02-02T03:50:06.2+05:30",
"updated_at": "2021-02-02T03:50:06.2+05:30"
},
{
"id": 239,
"user_id": 141,
"title": "Canto supellex virga explicabo sui confugo accedo omnis comis cimentarius callide.",
"completed": false,
"created_at": "2021-02-02T03:50:06.202+05:30",
"updated_at": "2021-02-02T03:50:06.202+05:30"
},
{
"id": 240,
"user_id": 143,
"title": "Venio solitudo conspergo architecto delego thymum color.",
"completed": true,
"created_at": "2021-02-02T03:50:06.218+05:30",
"updated_at": "2021-02-02T03:50:06.218+05:30"
},
{
"id": 241,
"user_id": 145,
"title": "Et comminor victoria crux vulnus.",
"completed": true,
"created_at": "2021-02-02T03:50:06.249+05:30",
"updated_at": "2021-02-02T03:50:06.249+05:30"
},
{
"id": 242,
"user_id": 145,
"title": "Alienus vergo torqueo bellum et adnuo vinco ambitus delicate constans.",
"completed": true,
"created_at": "2021-02-02T03:50:06.251+05:30",
"updated_at": "2021-02-02T03:50:06.251+05:30"
},
{
"id": 243,
"user_id": 145,
"title": "Curiositas in dapifer deprimo addo.",
"completed": false,
"created_at": "2021-02-02T03:50:06.254+05:30",
"updated_at": "2021-02-02T03:50:06.254+05:30"
},
{
"id": 244,
"user_id": 147,
"title": "Tabula depereo alveus sulum exercitationem suppono argentum aegrus molestias uredo.",
"completed": true,
"created_at": "2021-02-02T03:50:06.276+05:30",
"updated_at": "2021-02-02T03:50:06.276+05:30"
},
{
"id": 245,
"user_id": 147,
"title": "Vallum repudiandae tener conspergo sapiente.",
"completed": true,
"created_at": "2021-02-02T03:50:06.278+05:30",
"updated_at": "2021-02-02T03:50:06.278+05:30"
},
{
"id": 249,
"user_id": 150,
"title": "Autus abutor et tollo strues caritas.",
"completed": true,
"created_at": "2021-02-02T03:50:06.347+05:30",
"updated_at": "2021-02-02T03:50:06.347+05:30"
},
{
"id": 250,
"user_id": 151,
"title": "Aedificium theologus comparo taceo sed eveniet adsum basium.",
"completed": true,
"created_at": "2021-02-02T03:50:06.373+05:30",
"updated_at": "2021-02-02T03:50:06.373+05:30"
},
{
"id": 251,
"user_id": 151,
"title": "Aqua vallum carmen damno adsum.",
"completed": true,
"created_at": "2021-02-02T03:50:06.375+05:30",
"updated_at": "2021-02-02T03:50:06.375+05:30"
},
{
"id": 252,
"user_id": 152,
"title": "Antepono deleniti vultuosus adiuvo caput.",
"completed": false,
"created_at": "2021-02-02T03:50:06.38+05:30",
"updated_at": "2021-02-02T03:50:06.38+05:30"
},
{
"id": 253,
"user_id": 155,
"title": "Qui pax careo tres quam vulticulus utilis calculus decumbo.",
"completed": false,
"created_at": "2021-02-02T03:50:06.428+05:30",
"updated_at": "2021-02-02T03:50:06.428+05:30"
},
{
"id": 254,
"user_id": 155,
"title": "Bestia textor aranea tracto iure comedo velum accommodo.",
"completed": true,
"created_at": "2021-02-02T03:50:06.43+05:30",
"updated_at": "2021-02-02T03:50:06.43+05:30"
},
{
"id": 255,
"user_id": 157,
"title": "Culpa convoco accendo maiores coniuratio degenero alias.",
"completed": false,
"created_at": "2021-02-02T03:50:06.449+05:30",
"updated_at": "2021-02-02T03:50:06.449+05:30"
},
{
"id": 256,
"user_id": 157,
"title": "Vigilo distinctio asporto corroboro vulgivagus cupiditas vilitas.",
"completed": true,
"created_at": "2021-02-02T03:50:06.45+05:30",
"updated_at": "2021-02-02T03:50:06.45+05:30"
}
]
}