{
"code": 200,
"meta": {
"pagination": {
"total": 1222,
"pages": 62,
"page": 1,
"limit": 20
}
},
"data": [
{
"id": 137,
"post_id": 136,
"name": "Rep. Sher Patel",
"email": "patel_sher_rep@heathcote-hickle.name",
"body": "Qui quaerat in. Eos consequatur aut. Id repellat eaque. Vel et placeat.",
"created_at": "2021-02-02T03:50:06.16+05:30",
"updated_at": "2021-02-02T03:50:06.16+05:30"
},
{
"id": 138,
"post_id": 140,
"name": "Ravi Reddy",
"email": "reddy_ravi@sanford.biz",
"body": "Odit inventore eum.",
"created_at": "2021-02-02T03:50:06.216+05:30",
"updated_at": "2021-02-02T03:50:06.216+05:30"
},
{
"id": 140,
"post_id": 147,
"name": "Ranjit Mahajan",
"email": "ranjit_mahajan@rempel.info",
"body": "Modi qui soluta. Dolorum laborum minima.",
"created_at": "2021-02-02T03:50:06.293+05:30",
"updated_at": "2021-02-02T03:50:06.293+05:30"
},
{
"id": 141,
"post_id": 147,
"name": "Kailash Somayaji",
"email": "kailash_somayaji@reilly-turner.biz",
"body": "Nam quia rerum. Dolorem dolor molestias.",
"created_at": "2021-02-02T03:50:06.296+05:30",
"updated_at": "2021-02-02T03:50:06.296+05:30"
},
{
"id": 144,
"post_id": 150,
"name": "Chandran Pilla",
"email": "chandran_pilla@hayes.info",
"body": "Modi numquam reprehenderit.",
"created_at": "2021-02-02T03:50:06.333+05:30",
"updated_at": "2021-02-02T03:50:06.333+05:30"
},
{
"id": 145,
"post_id": 151,
"name": "Anish Chopra",
"email": "anish_chopra@rowe.net",
"body": "Aut quia quam. Explicabo non labore.",
"created_at": "2021-02-02T03:50:06.342+05:30",
"updated_at": "2021-02-02T03:50:06.342+05:30"
},
{
"id": 146,
"post_id": 151,
"name": "Fr. Swara Singh",
"email": "swara_singh_fr@bergnaum-koch.info",
"body": "Recusandae veniam quis. Consequuntur ut voluptatem. Blanditiis similique velit.",
"created_at": "2021-02-02T03:50:06.344+05:30",
"updated_at": "2021-02-02T03:50:06.344+05:30"
},
{
"id": 147,
"post_id": 152,
"name": "Hiranmaya Mukhopadhyay",
"email": "mukhopadhyay_hiranmaya@gerhold-mraz.name",
"body": "Temporibus ut qui. Id et veniam.",
"created_at": "2021-02-02T03:50:06.357+05:30",
"updated_at": "2021-02-02T03:50:06.357+05:30"
},
{
"id": 148,
"post_id": 152,
"name": "Akshata Embranthiri",
"email": "akshata_embranthiri@larkin-lakin.biz",
"body": "Consequatur optio sit. Occaecati vitae similique. Officiis blanditiis quis. Velit error minus.",
"created_at": "2021-02-02T03:50:06.36+05:30",
"updated_at": "2021-02-02T03:50:06.36+05:30"
},
{
"id": 149,
"post_id": 153,
"name": "The Hon. Bhishma Nambeesan",
"email": "bhishma_the_hon_nambeesan@mcclure-fay.io",
"body": "Repellendus perspiciatis sequi. Ratione sint harum.",
"created_at": "2021-02-02T03:50:06.368+05:30",
"updated_at": "2021-02-02T03:50:06.368+05:30"
},
{
"id": 150,
"post_id": 153,
"name": "Divya Gandhi",
"email": "gandhi_divya@bogan.org",
"body": "Aut aperiam pariatur. Vero quidem illum. Autem aut autem. Error maiores consequatur.",
"created_at": "2021-02-02T03:50:06.371+05:30",
"updated_at": "2021-02-02T03:50:06.371+05:30"
},
{
"id": 151,
"post_id": 155,
"name": "Mina Abbott II",
"email": "ii_abbott_mina@considine.biz",
"body": "Rerum laborum beatae. Nobis quis culpa. Doloremque magni quis. Voluptas esse possimus.",
"created_at": "2021-02-02T03:50:06.396+05:30",
"updated_at": "2021-02-02T03:50:06.396+05:30"
},
{
"id": 152,
"post_id": 155,
"name": "Aanand Khanna",
"email": "aanand_khanna@huel.info",
"body": "Voluptatem fuga voluptas. Ut facilis cupiditate. Quia ut aut. Earum eos cum.",
"created_at": "2021-02-02T03:50:06.399+05:30",
"updated_at": "2021-02-02T03:50:06.399+05:30"
},
{
"id": 153,
"post_id": 156,
"name": "Aishani Chattopadhyay",
"email": "aishani_chattopadhyay@streich.org",
"body": "Labore quisquam esse. Incidunt rerum ipsum. Sint ab expedita. Rerum alias veritatis.",
"created_at": "2021-02-02T03:50:06.414+05:30",
"updated_at": "2021-02-02T03:50:06.414+05:30"
},
{
"id": 154,
"post_id": 156,
"name": "Himadri Naik",
"email": "himadri_naik@fisher.com",
"body": "Modi ex voluptatibus.",
"created_at": "2021-02-02T03:50:06.416+05:30",
"updated_at": "2021-02-02T03:50:06.416+05:30"
},
{
"id": 155,
"post_id": 157,
"name": "Sloka Devar MD",
"email": "sloka_md_devar@fay-vandervort.name",
"body": "Voluptatibus soluta possimus. Quia cum vitae.",
"created_at": "2021-02-02T03:50:06.423+05:30",
"updated_at": "2021-02-02T03:50:06.423+05:30"
},
{
"id": 156,
"post_id": 157,
"name": "Nagabhushanam Talwar DVM",
"email": "nagabhushanam_talwar_dvm@howe.info",
"body": "Voluptates eaque commodi. Et quidem necessitatibus.",
"created_at": "2021-02-02T03:50:06.426+05:30",
"updated_at": "2021-02-02T03:50:06.426+05:30"
},
{
"id": 157,
"post_id": 158,
"name": "The Hon. Chetan Bhat",
"email": "chetan_bhat_hon_the@bode.info",
"body": "Aut in totam.",
"created_at": "2021-02-02T03:50:06.444+05:30",
"updated_at": "2021-02-02T03:50:06.444+05:30"
},
{
"id": 158,
"post_id": 158,
"name": "Ritesh Naik Esq.",
"email": "ritesh_naik_esq@ziemann.io",
"body": "Nobis est voluptas. Est fugit placeat.",
"created_at": "2021-02-02T03:50:06.446+05:30",
"updated_at": "2021-02-02T03:50:06.446+05:30"
},
{
"id": 159,
"post_id": 159,
"name": "Pres. Ramesh Pillai",
"email": "pillai_pres_ramesh@shields-prosacco.com",
"body": "Voluptatibus eius cupiditate. Est debitis quo. Et quod et.",
"created_at": "2021-02-02T03:50:06.462+05:30",
"updated_at": "2021-02-02T03:50:06.462+05:30"
}
]
}