{
"code": 200,
"meta": {
"pagination": {
"total": 1579,
"pages": 79,
"page": 1,
"limit": 20
}
},
"data": [
{
"id": 137,
"name": "Paramartha Shukla",
"email": "shukla_paramartha@kassulke.com",
"gender": "Male",
"status": "Active",
"created_at": "2021-02-02T03:50:06.148+05:30",
"updated_at": "2021-02-02T03:50:06.148+05:30"
},
{
"id": 138,
"name": "Rajinder Iyer",
"email": "iyer_rajinder@brekke.net",
"gender": "Male",
"status": "Inactive",
"created_at": "2021-02-02T03:50:06.175+05:30",
"updated_at": "2021-02-02T03:50:06.175+05:30"
},
{
"id": 140,
"name": "Dhatri Prajapat",
"email": "dhatri_prajapat@daugherty.biz",
"gender": "Female",
"status": "Inactive",
"created_at": "2021-02-02T03:50:06.195+05:30",
"updated_at": "2021-02-02T03:50:06.195+05:30"
},
{
"id": 141,
"name": "Agnimitra Khanna",
"email": "agnimitra_khanna@kirlin-ebert.net",
"gender": "Male",
"status": "Inactive",
"created_at": "2021-02-02T03:50:06.197+05:30",
"updated_at": "2021-02-02T03:50:06.197+05:30"
},
{
"id": 142,
"name": "Prema Iyer",
"email": "prema_iyer@daniel.io",
"gender": "Female",
"status": "Inactive",
"created_at": "2021-02-02T03:50:06.205+05:30",
"updated_at": "2021-02-02T03:50:06.205+05:30"
},
{
"id": 143,
"name": "Tejas Deshpande",
"email": "tejas_deshpande@lockman.co",
"gender": "Male",
"status": "Inactive",
"created_at": "2021-02-02T03:50:06.207+05:30",
"updated_at": "2021-02-02T03:50:06.207+05:30"
},
{
"id": 145,
"name": "Uma Menon",
"email": "uma_menon@ernser.name",
"gender": "Female",
"status": "Inactive",
"created_at": "2021-02-02T03:50:06.233+05:30",
"updated_at": "2021-02-02T03:50:06.233+05:30"
},
{
"id": 147,
"name": "Gautama Bandopadhyay",
"email": "gautama_bandopadhyay@bruen-skiles.name",
"gender": "Male",
"status": "Active",
"created_at": "2021-02-02T03:50:06.273+05:30",
"updated_at": "2021-02-02T03:50:06.273+05:30"
},
{
"id": 148,
"name": "Bilwa Pothuvaal",
"email": "bilwa_pothuvaal@corwin.io",
"gender": "Female",
"status": "Inactive",
"created_at": "2021-02-02T03:50:06.281+05:30",
"updated_at": "2021-02-02T03:50:06.281+05:30"
},
{
"id": 150,
"name": "Sloka Achari",
"email": "achari_sloka@ebert.biz",
"gender": "Male",
"status": "Active",
"created_at": "2021-02-02T03:50:06.325+05:30",
"updated_at": "2021-02-02T03:50:06.325+05:30"
},
{
"id": 151,
"name": "Minakshi Chopra LLD",
"email": "minakshi_lld_chopra@rice.net",
"gender": "Female",
"status": "Active",
"created_at": "2021-02-02T03:50:06.35+05:30",
"updated_at": "2021-02-02T03:50:06.35+05:30"
},
{
"id": 152,
"name": "Ayushmati Johar",
"email": "ayushmati_johar@koch.biz",
"gender": "Female",
"status": "Active",
"created_at": "2021-02-02T03:50:06.378+05:30",
"updated_at": "2021-02-02T03:50:06.378+05:30"
},
{
"id": 153,
"name": "Daiwik Rana CPA",
"email": "rana_daiwik_cpa@metz-wunsch.net",
"gender": "Female",
"status": "Inactive",
"created_at": "2021-02-02T03:50:06.383+05:30",
"updated_at": "2021-02-02T03:50:06.383+05:30"
},
{
"id": 154,
"name": "Chandra Kakkar",
"email": "chandra_kakkar@pouros-konopelski.io",
"gender": "Female",
"status": "Active",
"created_at": "2021-02-02T03:50:06.402+05:30",
"updated_at": "2021-02-02T03:50:06.402+05:30"
},
{
"id": 155,
"name": "Chandan Abbott",
"email": "abbott_chandan@christiansen.org",
"gender": "Male",
"status": "Active",
"created_at": "2021-02-02T03:50:06.405+05:30",
"updated_at": "2021-02-02T03:50:06.405+05:30"
},
{
"id": 156,
"name": "Tarun Sethi",
"email": "sethi_tarun@walter-dach.co",
"gender": "Female",
"status": "Inactive",
"created_at": "2021-02-02T03:50:06.433+05:30",
"updated_at": "2021-02-02T03:50:06.433+05:30"
},
{
"id": 157,
"name": "Bhargavi Butt",
"email": "bhargavi_butt@bartell-toy.info",
"gender": "Male",
"status": "Inactive",
"created_at": "2021-02-02T03:50:06.436+05:30",
"updated_at": "2021-02-02T03:50:06.436+05:30"
},
{
"id": 158,
"name": "Gotum Kakkar",
"email": "gotum_kakkar@bode-reichel.com",
"gender": "Female",
"status": "Active",
"created_at": "2021-02-02T03:50:06.454+05:30",
"updated_at": "2021-02-02T03:50:06.454+05:30"
},
{
"id": 159,
"name": "Amb. Vaijayanthi Verma",
"email": "amb_verma_vaijayanthi@ziemann.io",
"gender": "Female",
"status": "Inactive",
"created_at": "2021-02-02T03:50:06.465+05:30",
"updated_at": "2021-02-02T03:50:06.465+05:30"
},
{
"id": 160,
"name": "Suryakantam Kaur",
"email": "suryakantam_kaur@schmidt-smitham.info",
"gender": "Male",
"status": "Inactive",
"created_at": "2021-02-02T03:50:06.474+05:30",
"updated_at": "2021-02-02T03:50:06.474+05:30"
}
]
}