{
"code": 200,
"meta": {
"pagination": {
"total": 1256,
"pages": 63,
"page": 1,
"limit": 20
}
},
"data": [
{
"id": 136,
"user_id": 137,
"title": "Cultura cogo cimentarius cilicium voluptatem addo aut ascit sint cervus ver.",
"body": "Impedit patruus ager. Contigo aut clementia. Suppono terminatio caritas. Conqueror acsi deleniti. Cognomen non cruciamentum. Ancilla temptatio delicate. Quaerat terga aufero. Tabula suspendo amaritudo. Soluta tego trado. Curatio sumptus et. Ipsam nihil tergiversatio. Alioqui abduco eum. Amplus curso ager. Abstergo colo sub. Arcus ademptio vallum. Substantia defetiscor stipes. Talio casso video. Ex tabernus ancilla. Autus umerus bos. Assentator modi pecunia. Stabilis quis circumvenio. Aspernatur solum voro. Veritatis vester cerno. Cunae illum defero. Paens aeger avaritia. Vesco succedo commodo. Conitor universe creta.",
"created_at": "2021-02-02T03:50:06.157+05:30",
"updated_at": "2021-02-02T03:50:06.157+05:30"
},
{
"id": 137,
"user_id": 137,
"title": "Vulgus alter adamo viduo audio molestiae tunc.",
"body": "Cui adstringo perspiciatis. Eos cenaculum sono. Auctus conforto super. Tendo et aeneus. Cuius trans adiuvo. Colloco clibanus tredecim. Crastinus colligo corroboro. Cavus benevolentia bonus. Praesentium aeternus alo. Casso creator convoco. Pectus adeptio soleo. Rerum caute cauda. Pecunia clementia tondeo. Veritatis est tabula. Xiphias necessitatibus sperno. Sufficio adamo sui. Bellicus suspendo uredo. Trans voro ubi. Architecto deduco verecundia. Coerceo patruus sustineo. Vehemens omnis casus. Paulatim tenetur triumphus. Autus dolorem celer. Culpa sunt amplexus. Sequi mollitia voluptate. Cervus verbera carus. Varius laudantium amet.",
"created_at": "2021-02-02T03:50:06.166+05:30",
"updated_at": "2021-02-02T03:50:06.166+05:30"
},
{
"id": 140,
"user_id": 143,
"title": "Thema magnam vacuus patria stella civitas pecto acsi charisma ciminatio illo vis debeo.",
"body": "Minima vesper tardus. Agnitio rerum sumptus. Degusto ocer temptatio. Tremo thymum eos. Quo tamen vilitas. Sed causa deludo. Taedium basium amita. Unde vulgus acervus. Sono beatae vorago. Quidem vis tremo. Acsi volutabrum curvo. Civis corrigo nesciunt. Adfero somniculosus totam. Antea sophismata conduco. Et totus cursim. Curo aut validus. Sordeo venio vis. Eveniet basium est. Bestia suadeo spectaculum. Cotidie atrocitas non. Culpo aer tabula. Terminatio carbo adulatio. Apud abscido benigne. Bibo quis victus. Magni sophismata vulticulus. Facilis illum tot. Ut vero creator. Tres aegrus agnosco.",
"created_at": "2021-02-02T03:50:06.213+05:30",
"updated_at": "2021-02-02T03:50:06.213+05:30"
},
{
"id": 142,
"user_id": 145,
"title": "Asper atrox cuppedia celer tepidus carpo solitudo tredecim deleniti doloribus coruscus.",
"body": "Decumbo appositus soluta. Apto adamo demergo. Cogo alius illo. Amaritudo arbitro a. Est subvenio maiores. Via consequatur facilis. Acsi rerum ipsa. Demoror sapiente est. Demum voluptate benigne. Quia defleo sufficio. Venustas spargo comptus. Angelus crur degusto. Theatrum at appositus. Perferendis color curto. Spoliatio coniuratio cetera. Varius sulum ut.",
"created_at": "2021-02-02T03:50:06.239+05:30",
"updated_at": "2021-02-02T03:50:06.239+05:30"
},
{
"id": 143,
"user_id": 145,
"title": "Venustas cibus est denuo suffoco vitium ascisco quia solum socius amet cupio uredo una voluptatem magni cedo.",
"body": "Carbo brevis catena. Ocer infit qui. Clarus thorax aut. Eligendi celebrer tibi. Conforto ut canonicus. Beneficium theca nobis. Sulum demitto dolor. Amet blandior thymbra. Volup barba assumenda. Aptus abutor architecto. Tumultus stips adsidue. Deorsum nemo virga. Tenetur aiunt pariatur. Cariosus complectus accusamus. Trepide odio bene.",
"created_at": "2021-02-02T03:50:06.245+05:30",
"updated_at": "2021-02-02T03:50:06.245+05:30"
},
{
"id": 146,
"user_id": 148,
"title": "Aequitas conitor abeo viscus caries alienus tendo vestrum tabella victus amita.",
"body": "Candidus tergo bardus. Apostolus ambulo spiritus. Desidero perspiciatis victus. Tot esse adnuo. Cunabula aut quia. Auditor dedico pauper. Adduco solutio acer. Cauda tabernus qui. Caste curtus adaugeo. Acies odio cribro. Arx animi tardus. Sordeo acidus decimus. Tactus cohaero animi. Considero alias substantia. Vigor tonsor uredo. Bellum aut ubi. Perspiciatis omnis acervus. Consequuntur acer curriculum. Peccatus non nam. Aut denuo textilis. Argumentum est amplitudo. Coerceo administratio debeo. Ager desolo voluptatem. Veniam causa conduco. Beatus triumphus tempore.",
"created_at": "2021-02-02T03:50:06.286+05:30",
"updated_at": "2021-02-02T03:50:06.286+05:30"
},
{
"id": 147,
"user_id": 148,
"title": "Blanditiis inflammatio aut vivo thymum cito universe incidunt thesaurus adsum somniculosus aeger illo sub delectatio ulciscor suffragium autem vorax.",
"body": "Voro animi coadunatio. Super defetiscor cunctatio. Deripio arx vix. Reiciendis admoneo suffoco. Cohaero ultio occaecati. Aiunt aperio ciminatio. Canonicus desparatus color. Vel claro villa. Stipes curvo crapula. Aliquid quis ars. Admiratio cunctatio summa. Tabesco deleniti depopulo. Clamo unus laudantium. Calamitas candidus comburo. Minima curvo ambitus. Clibanus aequitas cavus. Defungo similique attonbitus.",
"created_at": "2021-02-02T03:50:06.291+05:30",
"updated_at": "2021-02-02T03:50:06.291+05:30"
},
{
"id": 150,
"user_id": 150,
"title": "Teneo baiulus callide ultra porro nostrum vel aut somnus ut annus charisma cuius victus sed cariosus.",
"body": "Suus curso at. Defendo tenax deleo. Uredo attero votum. Theca asperiores viduo. Impedit curtus vestrum. Decet nihil admoneo. Omnis cogo fuga. Voluptas tempora cultura. Confido soleo spero. Amissio animi et. Tener ambulo adeo. Delibero comburo celebrer. Quam ultio somniculosus. Beatae chirographum ustulo. Apostolus degero aranea. Paens confugo rerum. Veritatis eum quia. Atavus terra quos. Tabernus tergiversatio conspergo. Vos crapula adipisci. Quo administratio amaritudo. Talus dignissimos aptus. Alveus suffragium villa. Damnatio subito deprecator.",
"created_at": "2021-02-02T03:50:06.331+05:30",
"updated_at": "2021-02-02T03:50:06.331+05:30"
},
{
"id": 151,
"user_id": 150,
"title": "Arceo ascisco attollo despecto deserunt est conqueror nostrum aegre vereor vulticulus unus succurro nemo ab aggredior ubi sortitus.",
"body": "Amoveo pauci arguo. Corrigo antepono amaritudo. Corroboro placeat degenero. Attollo aut vestrum. Aestas auxilium occaecati. Cura veniam cunabula. Vix coaegresco curia. Ipsam cognatus aggredior. Eum accipio claudeo. Armarium accommodo timidus. Sed ustilo aspicio. Amo defungo crapula. Denuo alii trepide. Capio consuasor tergum. Angelus titulus et. Collum commodi comis. Timor thesis volup. Sed cunae cernuus. Correptius vultuosus trado. Cupiditate veniam stultus. Coerceo possimus aequitas. Sunt vita est. Incidunt aliqua soleo. Agnitio utroque iure. Correptius cimentarius vulariter.",
"created_at": "2021-02-02T03:50:06.339+05:30",
"updated_at": "2021-02-02T03:50:06.339+05:30"
},
{
"id": 152,
"user_id": 151,
"title": "Bellicus amiculum argumentum ipsam capio tempus sono adipisci cubicularis et.",
"body": "Autem vulticulus decet. Textus decet vero. Aperte virga vito. Adversus tubineus adipiscor. Damno talis vestigium. Civitas vultuosus caveo. Sto derelinquo expedita. Ustilo voro tamdiu. Usitas ut auctus. Aliquam tergiversatio vilicus. Stabilis turpis canonicus. Ager eos adstringo. Adflicto absorbeo non. Coerceo usus suasoria. Alias sursum conitor. Velum suscipio capto. Cum corrigo adfero. Valde quo sit. Et defleo fugiat.",
"created_at": "2021-02-02T03:50:06.354+05:30",
"updated_at": "2021-02-02T03:50:06.354+05:30"
},
{
"id": 153,
"user_id": 151,
"title": "Umerus consequatur usus vicissitudo civis minus apto subiungo aut tutamen una demo et conor delectatio cariosus decretum asporto taedium.",
"body": "Voluptas auxilium qui. Bellum allatus deserunt. Velit ultio conculco. Clementia deripio cariosus. Decretum admoneo viscus. Delibero magni minus. Considero coerceo tempore. Tunc curvus theatrum. Consuasor administratio pax. Ago delicate caterva. Minus vinco labore. Aegre auctor tenax. Absum textor repudiandae. Synagoga corrupti vomer. Capio vestigium theologus. Turba dens deficio. Cotidie aetas ut. Acsi dolorem ago. Quis libero certus. Non tergiversatio deleniti. Conservo teneo tempus. Argentum ratione ter. Molestiae temporibus clam. Accipio autem saepe. Damnatio arcesso ut. Caute tero vigor. Sunt subvenio conatus.",
"created_at": "2021-02-02T03:50:06.366+05:30",
"updated_at": "2021-02-02T03:50:06.366+05:30"
},
{
"id": 154,
"user_id": 153,
"title": "Canto carbo suadeo solvo thymum vomito caute magni molestias creber nemo voluptas xiphias auctus cohors sufficio eius utrum.",
"body": "Tabernus certe eligendi. Sapiente termes adversus. Ait videlicet totus. Tricesimus concedo sopor. Communis comptus angulus. Inflammatio defluo et. Sunt cinis ut. Sub triginta spero. Repellendus attero spectaculum. Claustrum repudiandae temporibus. Cuppedia veritatis compono. Sollers velut laboriosam. Coadunatio adhaero debitis. Verus alienus debitis. Reiciendis bardus voro. Tremo iusto agnosco. Cubicularis bis aliqua.",
"created_at": "2021-02-02T03:50:06.388+05:30",
"updated_at": "2021-02-02T03:50:06.388+05:30"
},
{
"id": 155,
"user_id": 153,
"title": "Vitium territo totidem deduco charisma enim adfectus eos stipes urbanus corporis commemoro degenero deinde vorax iste sollers.",
"body": "Demens vereor adeptio. Ubi terreo tabula. Conatus temeritas cruentus. Cupiditate vulticulus timidus. Atrocitas est arcus. Aeger vergo arca. Absque depono denuncio. Creo suppono aetas. Vinum rem et. Auditor amo turbo. Blanditiis dolorem coaegresco. Cinis aufero aperio. Tenetur vindico pel. Dicta uter tergeo. Viduo texo aut. Decretum demoror excepturi. Thorax sumptus civitas. Tonsor eos causa.",
"created_at": "2021-02-02T03:50:06.393+05:30",
"updated_at": "2021-02-02T03:50:06.393+05:30"
},
{
"id": 156,
"user_id": 155,
"title": "Utique similique spiritus animus comptus vado ducimus unus commodo beatus conturbo viduo coerceo tener tui defleo volup cinis vallum.",
"body": "Adulescens aliquam tempora. Cibo tracto abundans. Agnosco suus tepidus. Aperte cetera veniam. Cervus vomer umbra. Paens thesis capillus. Villa ocer dedico. Cum ut cibo. Laboriosam veritatis tergiversatio. Autem compono campana. Vere vicissitudo aperio. Valde tenuis synagoga. Veniam infit aut. Sed necessitatibus veritas. Approbo ut tristis. Appello culpa spargo. Decumbo defetiscor speculum. Umerus quis odit. Cultura degusto repellat. Charisma cuppedia adficio. Cogito ducimus crapula. Absque vomito cruciamentum. Solium at sulum. Creator similique ventus. Adsuesco sursum demergo. Rem uberrime autem. Eveniet adultus acervus. Tredecim ater capitulus.",
"created_at": "2021-02-02T03:50:06.411+05:30",
"updated_at": "2021-02-02T03:50:06.411+05:30"
},
{
"id": 157,
"user_id": 155,
"title": "Vis nisi aestas abbas viridis curo textor unde aut cauda aliquam laborum.",
"body": "Attollo tamisium crapula. Attonbitus optio absque. Coerceo cultura aiunt. Copia carcer cultura. Dens dolore derideo. Adversus xiphias culpo. Labore voluptas quia. Temptatio patior adsuesco. Ustilo velociter aetas. Caterva villa amita. Cupiditas defetiscor alveus. Cubicularis eius officiis. Accusantium absque aetas. Calcar ipsam alienus. Sapiente defaeco arcesso. Urbanus catena solum.",
"created_at": "2021-02-02T03:50:06.421+05:30",
"updated_at": "2021-02-02T03:50:06.421+05:30"
},
{
"id": 158,
"user_id": 157,
"title": "Aveho demonstro adiuvo caterva video adopto centum totus corona.",
"body": "Solio sollicito non. Ver et cupiditate. Animi soleo vos. Cimentarius adhuc admiratio. Amet minima ultio. Acerbitas trado caelestis. Apparatus abduco occaecati. In solium virgo. Absconditus sperno cum. Theologus cometes copiose. Excepturi adfero et. Averto tabula spiritus. Cetera quia odit. Somnus vel toties. Bellum ut coerceo.",
"created_at": "2021-02-02T03:50:06.441+05:30",
"updated_at": "2021-02-02T03:50:06.441+05:30"
},
{
"id": 159,
"user_id": 158,
"title": "Curatio campana antiquus alias nulla aedificium deripio thesis vilicus debitis admiratio.",
"body": "Adiuvo ullus voluptatum. Altus usitas comitatus. Agnitio aut bardus. Bibo veritatis cultura. Voco cum ipsam. Substantia totam vomica. Amor atrocitas somniculosus. Convoco ante cumque. Ullus approbo curtus. Demum verus videlicet. Solutio tibi urbanus. Termes taedium allatus. Cultura circumvenio vesica. Ut vigor blandior. Aestas est clibanus. Consequuntur benevolentia tenuis. Cimentarius avarus cinis.",
"created_at": "2021-02-02T03:50:06.459+05:30",
"updated_at": "2021-02-02T03:50:06.459+05:30"
},
{
"id": 160,
"user_id": 160,
"title": "Sordeo pauper civis concido auditor ullus.",
"body": "Sit vestrum villa. Victus assumenda amaritudo. Admoveo utor vulgivagus. Tamisium spero textor. Non pauci et. Caries eos benigne. Versus comminor autem. Compono deripio eum. Cornu tricesimus virtus. Cuius accusantium benigne. Autem qui tondeo. Coerceo laborum nobis. Custodia voro sum. Solio aperte omnis. Adaugeo ipsum ara. Summisse allatus communis. Super stultus paulatim. Consequuntur dolorem vociferor. Carbo terga tribuo.",
"created_at": "2021-02-02T03:50:06.482+05:30",
"updated_at": "2021-02-02T03:50:06.482+05:30"
},
{
"id": 161,
"user_id": 161,
"title": "Tredecim cognatus cornu debilito usitas suadeo argentum vado aut ventosus cursim combibo aetas alienus curia fugiat territo sordeo.",
"body": "Complectus crinis virga. Sursum copiose alo. Vigor vox debeo. Necessitatibus aperte vulnero. Comis vindico vicissitudo. Pel cubo coma. Autem armo versus. Fugiat aut totus. Bestia minima exercitationem. Aequus defetiscor trucido. Deprimo volubilis deputo. Aegrus aeneus pariatur. Aut vere denuncio. Fuga vobis adeptio. Textor vel deduco. Voluptas avaritia stultus. Vobis aut tot. Sursum usus stultus. Dolorem cotidie cogo.",
"created_at": "2021-02-02T03:50:06.493+05:30",
"updated_at": "2021-02-02T03:50:06.493+05:30"
},
{
"id": 162,
"user_id": 162,
"title": "Accedo terga corrigo sit suasoria vinitor cohibeo.",
"body": "Cupio et correptius. Crebro aegrotatio vita. Conduco tametsi ars. Ventus delectus dapifer. Blandior denuo collum. Dedico capitulus nesciunt. Terminatio appello maiores. Constans valeo eum. Accusator cohibeo adstringo. Quo coadunatio odio. Vestigium vespillo vilis. Summopere adstringo teres. Adimpleo verbera uter. Nihil trado temeritas. Cibo at thymbra. Quod aut crepusculum. Impedit est vox. Depraedor textus caute. Acies vere trado. Quo sonitus bene. Vereor reprehenderit soleo. Celer xiphias quis. Denique acsi vulariter. Ars vinculum voveo. Sophismata vitae comburo. Talio solium desparatus. Vicinus statua curia.",
"created_at": "2021-02-02T03:50:06.511+05:30",
"updated_at": "2021-02-02T03:50:06.511+05:30"
}
]
}